Division,WeightClassKg,Place,Name,Team,BodyweightKg,Best3SquatKg,Best3BenchKg,Best3DeadliftKg,TotalKg,Equipment,Event,Sex,BirthDate
Girls,44.23,1,Sarai Williams,Royse City,43.82,102.06,52.16,115.67,269.89,Unlimited,SBD,F,
Girls,44.23,2,Zakiyah Piper,Waxahachie,44.23,79.38,49.9,99.79,229.06,Unlimited,SBD,F,
Girls,44.23,3,Joselyn Silva,Longview Pine Tree,43.23,88.45,40.82,81.65,210.92,Unlimited,SBD,F,
Girls,44.23,DQ,Alyssa Dowd,Corsicana,44,,,,,Unlimited,SBD,F,
Girls,47.85,1,Araceli Landaverde,Mount Pleasant,47.36,117.93,61.23,115.67,294.84,Unlimited,SBD,F,
Girls,47.85,2,Yamille Castillo,Longview Pine Tree,47.17,111.13,49.9,92.99,254.01,Unlimited,SBD,F,
Girls,47.85,3,Martha Brannigan,Longview Pine Tree,45.9,81.65,43.09,72.57,197.31,Unlimited,SBD,F,
Girls,47.85,4,Sulyanette Figueroa,Royse City,46.95,72.57,36.29,81.65,190.51,Unlimited,SBD,F,
Girls,47.85,5,Kayleigh Fought-Rodgers,Red Oak,47.26,61.23,29.48,74.84,165.56,Unlimited,SBD,F,
Girls,47.85,6,Khloe Jackson,Crandall,46.13,54.43,27.22,74.84,156.49,Unlimited,SBD,F,
Girls,47.85,DQ,Brianna Lopez,Corsicana,46.54,,,,,Unlimited,SBD,F,
Girls,47.85,DQ,Karen Hernandez,Mount Pleasant,47.45,81.65,,,,Unlimited,SBD,F,
Girls,51.94,1,Jaela Gipson,Longview Pine Tree,50.67,142.88,56.7,133.81,333.39,Unlimited,SBD,F,
Girls,51.94,2,Sheyla Flores,Corsicana,50.62,120.2,54.43,120.2,294.84,Unlimited,SBD,F,
Girls,51.94,3,Mackenzie Robinson,Longview Pine Tree,51.8,115.67,52.16,115.67,283.5,Unlimited,SBD,F,
Girls,51.94,4,Sunny Sickels,Greenville,51.07,108.86,45.36,115.67,269.89,Unlimited,SBD,F,
Girls,51.94,5,Angel Nguyen,Royse City,51.17,83.91,65.77,111.13,260.82,Unlimited,SBD,F,
Girls,51.94,6,Valerie Colocho,Mount Pleasant,48.4,92.99,54.43,95.25,242.67,Unlimited,SBD,F,
Girls,51.94,7,Cassidy Arceneaux,Huntsville,50.71,90.72,47.63,97.52,235.87,Unlimited,SBD,F,
Girls,51.94,8,Marissa Vasquez,Hallsville,50.35,86.18,31.75,113.4,231.33,Unlimited,SBD,F,
Girls,51.94,9,Valerie Cassio,Mount Pleasant,51.62,86.18,47.63,92.99,226.8,Unlimited,SBD,F,
Girls,51.94,10,Maggie Hix,Greenville,49.08,79.38,45.36,95.25,219.99,Unlimited,SBD,F,
Girls,51.94,11,Tatum Hocker,Midlothian,49.44,72.57,45.36,72.57,190.51,Unlimited,SBD,F,
Girls,51.94,DQ,Destiny Colin,Corsicana,51.71,,,,,Unlimited,SBD,F,
Girls,51.94,DQ,Landrie Robinson,Waxahachie,51.03,,,,,Unlimited,SBD,F,
Girls,56.02,1,Et-Prize Mbuan,Royse City,55.07,158.76,72.57,136.08,367.41,Unlimited,SBD,F,
Girls,56.02,2,Rebekah Seder,Forney,55.07,122.47,70.31,124.74,317.51,Unlimited,SBD,F,
Girls,56.02,3,Rachel Malloy,Longview Pine Tree,54.61,129.27,65.77,113.4,308.44,Unlimited,SBD,F,
Girls,56.02,4,Hale Rylee,Whitehouse,54.61,117.93,68.04,108.86,294.84,Unlimited,SBD,F,
Girls,56.02,5,Jasmine Landaverde,Mount Pleasant,54.34,113.4,70.31,102.06,285.76,Unlimited,SBD,F,
Girls,56.02,6,Joselyn Baro,Royse City,54.98,111.13,47.63,115.67,274.42,Unlimited,SBD,F,
Girls,56.02,7,Monserrat Gonzalez,Mount Pleasant,53.43,104.33,54.43,108.86,267.62,Unlimited,SBD,F,
Girls,56.02,8,Leah Bunton,Royse City,54.7,88.45,72.57,102.06,263.08,Unlimited,SBD,F,
Girls,56.02,9,Haley Kennedy,Whitehouse,54.75,106.59,54.43,95.25,256.28,Unlimited,SBD,F,
Girls,56.02,10,Alexabeth Gomez,Red Oak,54.25,77.11,36.29,90.72,204.12,Unlimited,SBD,F,
Girls,56.02,DQ,Melanie Garcia,Corsicana,52.62,,,,,Unlimited,SBD,F,
Girls,56.02,DQ,Jocelyn Aguirre,Crandall,54.52,,,,,Unlimited,SBD,F,
Girls,60.1,1,Anna Moreland,Tyler Legacy,59.33,127.01,92.99,142.88,362.87,Unlimited,SBD,F,
Girls,60.1,2,Lyndsay Giles,Waxahachie,60.1,124.74,81.65,136.08,342.46,Unlimited,SBD,F,
Girls,60.1,3,Makenna Thomas,Longview,58.51,124.74,54.43,140.61,319.78,Unlimited,SBD,F,
Girls,60.1,4,Kora Ottun,Longview,57.65,120.2,52.16,138.35,310.71,Unlimited,SBD,F,
Girls,60.1,5,Lauren Gilbert,Royse City,59.78,117.93,70.31,115.67,303.91,Unlimited,SBD,F,
Girls,60.1,6,Dori Macedo,Mount Pleasant,58.24,117.93,61.23,113.4,292.57,Unlimited,SBD,F,
Girls,60.1,7,Samara Snorton,Whitehouse,59.87,117.93,49.9,124.74,292.57,Unlimited,SBD,F,
Girls,60.1,8,Angel Bell,Waxahachie,58.33,102.06,61.23,124.74,288.03,Unlimited,SBD,F,
Girls,60.1,9,Elicya Wilson,Royse City,57.97,102.06,65.77,113.4,281.23,Unlimited,SBD,F,
Girls,60.1,10,Roxana López,Corsicana,57.7,111.13,52.16,113.4,276.69,Unlimited,SBD,F,
Girls,60.1,11,Callie McLerran,Midlothian,59.24,113.4,56.7,104.33,274.42,Unlimited,SBD,F,
Girls,60.1,12,Felicity Lyons,Crandall,59.33,90.72,61.23,120.2,272.16,Unlimited,SBD,F,
Girls,60.1,13,Mackenzie Malone,Longview Pine Tree,60.1,106.59,45.36,108.86,260.82,Unlimited,SBD,F,
Girls,60.1,DQ,Natasha Silva,Red Oak,56.79,,,,,Unlimited,SBD,F,
Girls,67.36,1,Fatima Amaya,Royse City,65.59,192.78,97.52,170.1,460.4,Unlimited,SBD,F,
Girls,67.36,2,Caitlin Everett,Forney,65.77,170.1,79.38,151.95,401.43,Unlimited,SBD,F,
Girls,67.36,3,Venessa Egorah,North Forney,63.87,149.69,79.38,147.42,376.48,Unlimited,SBD,F,
Girls,67.36,4,Devyn Gray,Longview Pine Tree,64.82,154.22,77.11,129.27,360.61,Unlimited,SBD,F,
Girls,67.36,5,Kailynn Thomas,Longview,64.86,142.88,54.43,156.49,353.8,Unlimited,SBD,F,
Girls,67.36,6,Hailey Garner,Hallsville,65.95,131.54,61.23,140.61,333.39,Unlimited,SBD,F,
Girls,67.36,7,Emma Williams,Whitehouse,66.5,127.01,77.11,113.4,317.51,Unlimited,SBD,F,
Girls,67.36,8,Jiya Mistry,Marshall,66.77,102.06,72.57,133.81,308.44,Unlimited,SBD,F,
Girls,67.36,9,Kennedee Canales,Midlothian,65.05,120.2,54.43,122.47,297.1,Unlimited,SBD,F,
Girls,67.36,10,Hannah Brooks,Midlothian,63.78,111.13,58.97,120.2,290.3,Unlimited,SBD,F,
Girls,67.36,11,Madison Aldama,Ennis,66.13,104.33,65.77,117.93,288.03,Unlimited,SBD,F,
Girls,67.36,DQ,Fiona Harlan,Forney,64.77,147.42,,,,Unlimited,SBD,F,
Girls,67.36,DQ,Zaria Webb,Red Oak,60.37,115.67,,,,Unlimited,SBD,F,
Girls,67.36,DQ,Heaven Gruzins,Corsicana,67.22,,,,,Unlimited,SBD,F,
Girls,75.07,1,Allauryn Morgan,Longview Pine Tree,75.07,156.49,102.06,167.83,426.38,Unlimited,SBD,F,
Girls,75.07,2,Zoe Elliott,Longview Pine Tree,73.84,163.29,79.38,142.88,385.55,Unlimited,SBD,F,
Girls,75.07,3,Sara Lopez,Corsicana,73.66,149.69,83.91,142.88,376.48,Unlimited,SBD,F,
Girls,75.07,4,Angie Pham,Marshall,74.03,147.42,77.11,140.61,365.14,Unlimited,SBD,F,
Girls,75.07,5,Jocelyn Cordova,Longview Pine Tree,72.03,149.69,70.31,129.27,349.27,Unlimited,SBD,F,
Girls,75.07,6,Kaitlyn Whitten,Greenville,74.3,151.95,65.77,122.47,340.19,Unlimited,SBD,F,
Girls,75.07,7,Chloe Steber,Longview Pine Tree,74.89,156.49,56.7,127.01,340.19,Unlimited,SBD,F,
Girls,75.07,8,Molly Pitts,Nacogdoches,69.54,131.54,68.04,127.01,326.59,Unlimited,SBD,F,
Girls,75.07,9,Lourena Ramos,Huntsville,71.21,124.74,74.84,124.74,324.32,Unlimited,SBD,F,
Girls,75.07,10,Olivia Lemmert,Tyler Legacy,74.39,115.67,83.91,120.2,319.78,Unlimited,SBD,F,
Girls,75.07,11,Marivel Ojeda,Crandall,72.44,127.01,49.9,131.54,308.44,Unlimited,SBD,F,
Girls,75.07,12,Natalia Avila,Midlothian,72.57,129.27,52.16,127.01,308.44,Unlimited,SBD,F,
Girls,75.07,13,Anna Albritton,Tyler Legacy,72.57,117.93,74.84,113.4,306.17,Unlimited,SBD,F,
Girls,82.33,1,Ahjia James,Marshall,82.24,176.9,95.25,174.63,446.79,Unlimited,SBD,F,
Girls,82.33,2,Scarlett Whitacre,Royse City,76.11,158.76,79.38,149.69,387.82,Unlimited,SBD,F,
Girls,82.33,3,Olivia Lummus,Longview Pine Tree,81.51,149.69,92.99,131.54,374.21,Unlimited,SBD,F,
Girls,82.33,4,Wendy Esquivel,Marshall,79.7,145.15,79.38,140.61,365.14,Unlimited,SBD,F,
Girls,82.33,5,Saniya Milton,Mount Pleasant,75.57,133.81,86.18,142.88,362.87,Unlimited,SBD,F,
Girls,82.33,6,Harlee Henson,Royse City,77.84,149.69,79.38,129.27,358.34,Unlimited,SBD,F,
Girls,82.33,7,Daisy Cardona,Ennis,77.43,142.88,70.31,140.61,353.8,Unlimited,SBD,F,
Girls,82.33,8,Laura Whelchel,Tyler Legacy,81.33,124.74,72.57,142.88,340.19,Unlimited,SBD,F,
Girls,82.33,9,Daniela Cano,Corsicana,80.74,136.08,79.38,120.2,335.66,Unlimited,SBD,F,
Girls,82.33,10,Natalie Ceja,Longview Pine Tree,77.79,127.01,68.04,131.54,326.59,Unlimited,SBD,F,
Girls,82.33,DQ,Ainsleigh Walton,Midlothian,82.1,,,,,Unlimited,SBD,F,
Girls,82.33,DQ,Lauren Minatrea,Marshall,79.51,136.08,95.25,,,Unlimited,SBD,F,
Girls,82.33,DQ,Emma Thomas,Whitehouse,80.01,147.42,,,,Unlimited,SBD,F,
Girls,90.04,1,Karsom Adams,Waxahachie,88.18,151.95,81.65,149.69,383.29,Unlimited,SBD,F,
Girls,90.04,2,Lily Webb,Ennis,89.77,147.42,83.91,145.15,376.48,Unlimited,SBD,F,
Girls,90.04,3,Kylee Thrapp,Texarkana Texas,89.81,147.42,83.91,142.88,374.21,Unlimited,SBD,F,
Girls,90.04,4,Aniyah Daniels,Red Oak,87.54,145.15,88.45,136.08,369.68,Unlimited,SBD,F,
Girls,90.04,5,Ismary Medina,Greenville,82.83,142.88,65.77,142.88,351.53,Unlimited,SBD,F,
Girls,90.04,6,Esmeralda Guillen,North Forney,88.04,136.08,70.31,142.88,349.27,Unlimited,SBD,F,
Girls,90.04,7,Natalie Gibson,Greenville,89.04,122.47,77.11,147.42,347,Unlimited,SBD,F,
Girls,90.04,8,Xitlaly Sanchez,Mount Pleasant,84.91,131.54,83.91,120.2,335.66,Unlimited,SBD,F,
Girls,90.04,9,Emory Benkowski,Tyler Legacy,87.63,113.4,61.23,122.47,297.1,Unlimited,SBD,F,
Girls,90.04,DQ,Abigail Zuniga,Corsicana,87.77,120.2,,,,Unlimited,SBD,F,
Girls,90.04,DQ,Ma'Naja Johnson,Red Oak,83.78,,,,,Unlimited,SBD,F,
Girls,90.04,DQ,Nina Holm,Royse City,85.14,179.17,,,,Unlimited,SBD,F,
Girls,100.02,1,Haley Gardella,Royse City,99.97,210.92,131.54,192.78,535.24,Unlimited,SBD,F,
Girls,100.02,2,McKinsee Oviedo,Mount Pleasant,94.89,172.37,129.27,154.22,455.86,Unlimited,SBD,F,
Girls,100.02,3,Caitlyn Davis,Royse City,97.07,163.29,86.18,158.76,408.23,Unlimited,SBD,F,
Girls,100.02,4,Molly Greeson,Midlothian,99.79,170.1,90.72,136.08,396.89,Unlimited,SBD,F,
Girls,100.02,5,Kalea Phillips,Tyler Legacy,90.17,142.88,68.04,124.74,335.66,Unlimited,SBD,F,
Girls,100.02,6,Janilya Craft,Midlothian Heritage,93.44,142.88,63.5,129.27,335.66,Unlimited,SBD,F,
Girls,100.02,7,Payton Curlett,Waxahachie,96.62,124.74,49.9,124.74,299.37,Unlimited,SBD,F,
Girls,100.02,8,Savannah Dixon,Waxahachie,93.98,108.86,58.97,120.2,288.03,Unlimited,SBD,F,
Girls,100.02,9,Aryanna Murry,Red Oak,94.35,111.13,56.7,113.4,281.23,Unlimited,SBD,F,
Girls,100.02,DQ,Alexa Thompson,Whitehouse,99.79,,,,,Unlimited,SBD,F,
Girls,100.02,DQ,Jennifer Gomez,Corsicana,96.34,108.86,61.23,,,Unlimited,SBD,F,
Girls,100.02,DQ,Hannah Omosigho,Crandall,96.21,147.42,,,,Unlimited,SBD,F,
Girls,110,1,Aja Bostic,Royse City,100.79,238.14,133.81,224.53,596.47,Unlimited,SBD,F,
Girls,110,2,Kora Cornelius,Royse City,106.14,174.63,83.91,149.69,408.23,Unlimited,SBD,F,
Girls,110,3,Janiyah Taylor,Longview Pine Tree,108.77,172.37,88.45,140.61,401.43,Unlimited,SBD,F,
Girls,110,4,Darmesha Evans,Huntsville,107.68,156.49,90.72,151.95,399.16,Unlimited,SBD,F,
Girls,110,5,Rylee Wallingsford,Midlothian,107.5,142.88,72.57,120.2,335.66,Unlimited,SBD,F,
Girls,110,6,AJ Johnson #2,Hallsville,104.14,102.06,68.04,131.54,301.64,Unlimited,SBD,F,
Girls,110,DQ,Lela Hollis,Huntsville,108.32,133.81,,,,Unlimited,SBD,F,
Girls,110,DQ,Leslee Jones,Corsicana,104.14,,,,,Unlimited,SBD,F,
Girls,110+,1,Laikahs Kelly,Corsicana,121.11,233.6,120.2,197.31,551.11,Unlimited,SBD,F,
Girls,110+,2,Kellsy Blue-Johnson,Marshall,118.84,183.7,99.79,190.51,474,Unlimited,SBD,F,
Girls,110+,3,Emma Sanchez,Midlothian Heritage,117.71,197.31,79.38,170.1,446.79,Unlimited,SBD,F,
Girls,110+,4,Jamesha Skinner,Nacogdoches,114.71,181.44,97.52,156.49,435.45,Unlimited,SBD,F,
Girls,110+,5,Carina Sanchez,Longview Pine Tree,120.75,174.63,90.72,136.08,401.43,Unlimited,SBD,F,
Girls,110+,6,Cara Palmer,Royse City,114.62,161.03,97.52,131.54,390.09,Unlimited,SBD,F,
Girls,110+,7,Angelica Becerril,Corsicana,117.44,165.56,68.04,156.49,390.09,Unlimited,SBD,F,
Girls,110+,8,Zaryiah Henderson,Terrell,146.65,133.81,63.5,138.35,335.66,Unlimited,SBD,F,
Girls,110+,9,Mia Daboh,Waxahachie,125.1,111.13,52.16,117.93,281.23,Unlimited,SBD,F,
Girls,110+,10,Brianna Delgado,Midlothian Heritage,113.17,106.59,49.9,122.47,278.96,Unlimited,SBD,F,
Girls,110+,DQ,Autumn Wilderson,Royse City,124.28,158.76,,,,Unlimited,SBD,F,
Girls,110+,DQ,Madison Wright,Marshall,134.04,,,,,Unlimited,SBD,F,
