Division,WeightClassKg,Place,Name,Team,BodyweightKg,Best3SquatKg,Best3BenchKg,Best3DeadliftKg,TotalKg,Equipment,Event,Sex,BirthDate
Girls,44.23,1,Amanda Cortez,Eldorado,43.54,81.65,45.36,92.99,219.99,Unlimited,SBD,F,
Girls,44.23,DQ,Sydney Fuentes,Snyder,41.28,,,,,Unlimited,SBD,F,
Girls,47.85,1,Angélica Aranda,Eldorado,46.63,86.18,54.43,99.79,240.4,Unlimited,SBD,F,
Girls,51.94,1,Myranda Guerrero,Eldorado,50.8,138.35,58.97,133.81,331.12,Unlimited,SBD,F,
Girls,51.94,2,Yarely Rodriguez,Monahans,50.8,104.33,47.63,113.4,265.35,Unlimited,SBD,F,
Girls,51.94,3,Minelly Montes,Eldorado,49.8,99.79,43.09,99.79,242.67,Unlimited,SBD,F,
Girls,56.02,1,Alejandra Alegria,Eldorado,53.52,129.27,70.31,113.4,312.98,Unlimited,SBD,F,
Girls,56.02,2,Alexis Martinez,Eldorado,54.43,124.74,58.97,124.74,308.44,Unlimited,SBD,F,
Girls,56.02,3,Natalia Coronado,Eldorado,55.25,117.93,65.77,124.74,308.44,Unlimited,SBD,F,
Girls,56.02,4,Sophee Goltl,San Angelo Lake View,55.79,122.47,61.23,111.13,294.84,Unlimited,SBD,F,
Girls,56.02,5,Amari Calhoun,San Angelo Lake View,54.07,106.59,52.16,120.2,278.96,Unlimited,SBD,F,
Girls,56.02,6,Leslie Delgado,Monahans,55.7,102.06,56.7,97.52,256.28,Unlimited,SBD,F,
Girls,56.02,7,Jasmine Ortiz,Monahans,54.43,88.45,49.9,102.06,240.4,Unlimited,SBD,F,
Girls,56.02,8,Audi Cota,Monahans,54.07,97.52,47.63,90.72,235.87,Unlimited,SBD,F,
Girls,56.02,9,Ezra Alcaraz,Snyder,53.43,97.52,43.09,79.38,219.99,Unlimited,SBD,F,
Girls,56.02,10,Sydni Worrell,Snyder,55.97,79.38,38.56,83.91,201.85,Unlimited,SBD,F,
Girls,60.1,1,Renata Garcia,Monahans,58.06,124.74,49.9,131.54,306.17,Unlimited,SBD,F,
Girls,60.1,2,Milagros Armendariz,Monahans,59.69,113.4,54.43,113.4,281.23,Unlimited,SBD,F,
Girls,60.1,3,Heidi Estrada,Eldorado,59.96,99.79,52.16,124.74,276.69,Unlimited,SBD,F,
Girls,60.1,4,Aryia Morales,San Angelo Lake View,58.97,106.59,56.7,106.59,269.89,Unlimited,SBD,F,
Girls,60.1,5,Aubrey Ledesma,Monahans,58.97,99.79,56.7,108.86,265.35,Unlimited,SBD,F,
Girls,60.1,6,Addison Triplett,Eldorado,57.33,77.11,49.9,97.52,224.53,Unlimited,SBD,F,
Girls,67.36,1,Paige Polk,Christoval,63.96,120.2,54.43,147.42,322.05,Unlimited,SBD,F,
Girls,67.36,2,Breanna Otero,Monahans,64.41,90.72,58.97,115.67,265.35,Unlimited,SBD,F,
Girls,67.36,DQ,Dalila Davis,San Angelo Lake View,64.86,127.01,58.97,,,Unlimited,SBD,F,
Girls,75.07,1,Yatzari Narvaez,Eldorado,72.03,185.97,111.13,167.83,464.93,Unlimited,SBD,F,
Girls,75.07,2,Melia Briones,San Angelo Lake View,68.58,127.01,58.97,129.27,315.25,Unlimited,SBD,F,
Girls,75.07,3,Madi Lee,Monahans,67.49,127.01,63.5,117.93,308.44,Unlimited,SBD,F,
Girls,75.07,4,Marissa Luna,San Angelo Central,71.76,113.4,40.82,122.47,276.69,Unlimited,SBD,F,
Girls,75.07,DQ,Adrian Bankston,San Angelo Lake View,74.21,92.99,56.7,,,Unlimited,SBD,F,
Girls,82.33,1,Sidni Hunter,Snyder,77.11,174.63,92.99,158.76,426.38,Unlimited,SBD,F,
Girls,82.33,2,Analiese Torres,Snyder,80.47,174.63,83.91,136.08,394.63,Unlimited,SBD,F,
Girls,82.33,3,Perla Contreras,Eldorado,75.84,138.35,70.31,145.15,353.8,Unlimited,SBD,F,
Girls,82.33,4,Savhanna Wilkins,Christoval,77.47,149.69,54.43,131.54,335.66,Unlimited,SBD,F,
Girls,82.33,5,Gabriella Hernandez,Snyder,79.11,140.61,56.7,122.47,319.78,Unlimited,SBD,F,
Girls,82.33,6,Lupe Esparza,Eldorado,80.92,117.93,65.77,124.74,308.44,Unlimited,SBD,F,
Girls,82.33,7,Sage Joyce,Christoval,79.74,102.06,47.63,129.27,278.96,Unlimited,SBD,F,
Girls,82.33,8,Juliet Garcia,Christoval,81.92,111.13,45.36,120.2,276.69,Unlimited,SBD,F,
Girls,82.33,9,Brittlyn Miller,Christoval,80.1,95.25,40.82,117.93,254.01,Unlimited,SBD,F,
Girls,90.04,1,Clarissa Rios,Snyder,86.18,197.31,106.59,165.56,469.47,Unlimited,SBD,F,
Girls,90.04,2,Deyna Caballero,Monahans,88,149.69,65.77,117.93,333.39,Unlimited,SBD,F,
Girls,90.04,3,Yvonne Granados,Monahans,88.36,117.93,54.43,136.08,308.44,Unlimited,SBD,F,
Girls,90.04,4,Macie Goswick,Snyder,88.36,106.59,61.23,108.86,276.69,Unlimited,SBD,F,
Girls,90.04,5,Brianna Villeda,San Angelo Lake View,89.27,106.59,52.16,97.52,256.28,Unlimited,SBD,F,
Girls,100.02,1,Viviana Vasquez,Snyder,95.8,165.56,70.31,142.88,378.75,Unlimited,SBD,F,
Girls,100.02,2,Dyanara Ontiveroz,Monahans,95.16,131.54,70.31,145.15,347,Unlimited,SBD,F,
Girls,117.71,1,Yulisa Vega,San Angelo Lake View,115.85,188.24,81.65,156.49,426.38,Unlimited,SBD,F,
Girls,117.71,2,Brooke Skelton,San Angelo Lake View,107.59,172.37,74.84,145.15,392.36,Unlimited,SBD,F,
Girls,117.71,3,Mariah Gigger,San Angelo Lake View,100.88,117.93,77.11,117.93,312.98,Unlimited,SBD,F,
Girls,117.71,4,Zanyia James,Snyder,111.49,104.33,47.63,99.79,251.74,Unlimited,SBD,F,
